1617
60116
57388
64832
45048
-30248
12312
13705
-99966
20374
-29400
102070
41056
65081
22667
-24397
10659
-20799
-83339
-35837
-19438
41852
-94768
-66178
-29938
3942
35078
-66039
-89058
60092
10581
53932
67442
70252
26450
-51755
-4281
-49231
73996
-13930
38096
20483
-32771
-92709
-59423
50011
84123
-34123
9641
39837
-979787765
30934701
1542548272
-1515396795
-1841345982
277831410
460586337
377848436
-173223009
-2746670520
-1002087720
4056785880
-1454438481
1286242056
-7912480
37716320
-338622444
269684544
908230720
654822912
1429306809
-541923778
-429318792
1625669108
-2016809568
2334919041
8186294541684736
1
1278992169
1335080572689576626178887477771059456
3661960736306250625
386330320921767121
1821589997047921
406614744333558016
1164156318852393998109305558099521
5441925051749146801
5360798353084847364393524395000201216
5024542031478450625
3452957222044475601
-34592
1
3518
61332092115742561
-22452021157931
10944264856511588812633455722496
163622445752375
2060661811824295936
15243460090633076468049304687890625
228163329901794079517558101741160079616
67662748187194741170997559296
